com\mycompany\lab09\TestUserService.class
com\mycompany\lab09\InsertDataBase.class
com\mycompany\lab09\dao\UserDao.class
com\mycompany\lab09\SelectDataBase.class
com\mycompany\lab09\UpdateDataBase.class
com\mycompany\lab09\helper\DataBaseHelper.class
com\mycompany\lab09\ConnecDataBase.class
com\mycompany\lab09\newpackage\model\User.class
com\mycompany\lab09\TestUserDao.class
com\mycompany\lab09\dao\Dao.class
com\mycompany\lab09\service\UserService.class
com\mycompany\lab09\DeleteDataBase.class
